<?xml version="1.0" encoding="UTF-8" standalone="no"?>
<!-- Created with Inkscape (http://www.inkscape.org/) -->

<svg
   xmlns:dc="http://purl.org/dc/elements/1.1/"
   xmlns:cc="http://creativecommons.org/ns#"
   xmlns:rdf="http://www.w3.org/1999/02/22-rdf-syntax-ns#"
   xmlns:svg="http://www.w3.org/2000/svg"
   xmlns="http://www.w3.org/2000/svg"
   xmlns:sodipodi="http://sodipodi.sourceforge.net/DTD/sodipodi-0.dtd"
   xmlns:inkscape="http://www.inkscape.org/namespaces/inkscape"
   width="184.04921mm"
   height="136.07143mm"
   viewBox="0 0 652.14287 482.14285"
   id="svg5512"
   version="1.1"
   inkscape:version="0.91 r13725"
   inkscape:export-filename="/home/inmysocks/Documents/SVG Icons/AndMyAxe/PainLevels/11 Pain Levels.png"
   inkscape:export-xdpi="74"
   inkscape:export-ydpi="74"
   sodipodi:docname="PainLevels0-10.svg">
  <defs
     id="defs5514" />
  <sodipodi:namedview
     id="base"
     pagecolor="#ffffff"
     bordercolor="#666666"
     borderopacity="1.0"
     inkscape:pageopacity="0.0"
     inkscape:pageshadow="2"
     inkscape:zoom="1.4"
     inkscape:cx="348.32203"
     inkscape:cy="213.94039"
     inkscape:document-units="px"
     inkscape:current-layer="layer1"
     showgrid="false"
     showguides="true"
     inkscape:window-width="1920"
     inkscape:window-height="1026"
     inkscape:window-x="0"
     inkscape:window-y="27"
     inkscape:window-maximized="1"
     fit-margin-top="0"
     fit-margin-left="0"
     fit-margin-right="0"
     fit-margin-bottom="0" />
  <metadata
     id="metadata5517">
    <rdf:RDF>
      <cc:Work
         rdf:about="">
        <dc:format>image/svg+xml</dc:format>
        <dc:type
           rdf:resource="http://purl.org/dc/dcmitype/StillImage" />
        <dc:title></dc:title>
      </cc:Work>
    </rdf:RDF>
  </metadata>
  <g
     inkscape:label="Layer 1"
     inkscape:groupmode="layer"
     id="layer1"
     transform="translate(-14.642859,-527.00507)">
    <g
       id="g6594"
       transform="translate(-30.714286,-4.2857143)">
      <path
         d="m 342.71215,551.03116 a 81.071426,79.64286 0 0 1 7.68438,112.23705 81.071426,79.64286 0 0 1 -114.23062,7.83055 81.071426,79.64286 0 0 1 -8.25757,-112.19776 81.071426,79.64286 0 0 1 114.18918,-8.39354"
         sodipodi:open="true"
         sodipodi:end="5.4218479"
         sodipodi:start="5.4318835"
         sodipodi:ry="79.64286"
         sodipodi:rx="81.071426"
         sodipodi:cy="610.93365"
         sodipodi:cx="289.28571"
         sodipodi:type="arc"
         id="path4717"
         style="color:#000000;display:inline;overflow:visible;visibility:visible;fill:#00ff00;fill-opacity:1;fill-rule:evenodd;stroke:none;stroke-width:1px;stroke-linecap:butt;stroke-linejoin:miter;stroke-miterlimit:4;stroke-dasharray:none;stroke-dashoffset:0;stroke-opacity:1;marker:none;enable-background:accumulate" />
      <path
         d="m 268.84647,585.46352 a 10.714286,11.071428 0 0 1 1.01556,15.60246 10.714286,11.071428 0 0 1 -15.09656,1.08855 10.714286,11.071428 0 0 1 -1.09131,-15.597 10.714286,11.071428 0 0 1 15.09108,-1.16681"
         sodipodi:open="true"
         sodipodi:end="5.4218479"
         sodipodi:start="5.4318835"
         sodipodi:ry="11.071428"
         sodipodi:rx="10.714286"
         sodipodi:cy="593.79077"
         sodipodi:cx="261.78571"
         sodipodi:type="arc"
         id="path4719"
         style="color:#000000;display:inline;overflow:visible;visibility:visible;fill:#ffffff;fill-opacity:1;fill-rule:evenodd;stroke:none;stroke-width:1px;stroke-linecap:butt;stroke-linejoin:miter;stroke-miterlimit:4;stroke-dasharray:none;stroke-dashoffset:0;stroke-opacity:1;marker:none;enable-background:accumulate" />
      <path
         d="m 330.27506,585.8207 a 10.714286,11.071428 0 0 1 1.01556,15.60246 10.714286,11.071428 0 0 1 -15.09656,1.08855 10.714286,11.071428 0 0 1 -1.09131,-15.597 10.714286,11.071428 0 0 1 15.09108,-1.16681"
         sodipodi:open="true"
         sodipodi:end="5.4218479"
         sodipodi:start="5.4318835"
         sodipodi:ry="11.071428"
         sodipodi:rx="10.714286"
         sodipodi:cy="594.14795"
         sodipodi:cx="323.21429"
         sodipodi:type="arc"
         id="path4719-3"
         style="color:#000000;display:inline;overflow:visible;visibility:visible;fill:#ffffff;fill-opacity:1;fill-rule:evenodd;stroke:none;stroke-width:1px;stroke-linecap:butt;stroke-linejoin:miter;stroke-miterlimit:4;stroke-dasharray:none;stroke-dashoffset:0;stroke-opacity:1;marker:none;enable-background:accumulate" />
      <path
         sodipodi:nodetypes="cc"
         inkscape:connector-curvature="0"
         id="path4838"
         d="m 255.69144,636.53333 c 18.99855,28.36242 54.60869,31.37518 76.26652,-2.0203"
         style="fill:none;fill-rule:evenodd;stroke:#ffffff;stroke-width:7.00000095;stroke-linecap:round;stroke-linejoin:miter;stroke-miterlimit:4;stroke-dasharray:none;stroke-opacity:1" />
    </g>
    <g
       id="g6582"
       transform="translate(-72.142857,0.71428568)">
      <path
         d="m 710.56932,546.03116 a 81.071426,79.64286 0 0 1 7.68439,112.23705 81.071426,79.64286 0 0 1 -114.23063,7.83055 81.071426,79.64286 0 0 1 -8.25757,-112.19776 81.071426,79.64286 0 0 1 114.18919,-8.39354"
         sodipodi:open="true"
         sodipodi:end="5.4218479"
         sodipodi:start="5.4318835"
         sodipodi:ry="79.64286"
         sodipodi:rx="81.071426"
         sodipodi:cy="605.93365"
         sodipodi:cx="657.14288"
         sodipodi:type="arc"
         id="path4717-2"
         style="color:#000000;display:inline;overflow:visible;visibility:visible;fill:#d4ff2a;fill-opacity:1;fill-rule:evenodd;stroke:none;stroke-width:1px;stroke-linecap:butt;stroke-linejoin:miter;stroke-miterlimit:4;stroke-dasharray:none;stroke-dashoffset:0;stroke-opacity:1;marker:none;enable-background:accumulate" />
      <path
         d="m 636.70365,580.46352 a 10.714286,11.071428 0 0 1 1.01555,15.60246 10.714286,11.071428 0 0 1 -15.09655,1.08855 10.714286,11.071428 0 0 1 -1.09131,-15.597 10.714286,11.071428 0 0 1 15.09108,-1.16681"
         sodipodi:open="true"
         sodipodi:end="5.4218479"
         sodipodi:start="5.4318835"
         sodipodi:ry="11.071428"
         sodipodi:rx="10.714286"
         sodipodi:cy="588.79077"
         sodipodi:cx="629.64288"
         sodipodi:type="arc"
         id="path4719-9"
         style="color:#000000;display:inline;overflow:visible;visibility:visible;fill:#ffffff;fill-opacity:1;fill-rule:evenodd;stroke:none;stroke-width:1px;stroke-linecap:butt;stroke-linejoin:miter;stroke-miterlimit:4;stroke-dasharray:none;stroke-dashoffset:0;stroke-opacity:1;marker:none;enable-background:accumulate" />
      <path
         d="m 698.13224,580.8207 a 10.714286,11.071428 0 0 1 1.01555,15.60246 10.714286,11.071428 0 0 1 -15.09656,1.08855 10.714286,11.071428 0 0 1 -1.0913,-15.597 10.714286,11.071428 0 0 1 15.09108,-1.16681"
         sodipodi:open="true"
         sodipodi:end="5.4218479"
         sodipodi:start="5.4318835"
         sodipodi:ry="11.071428"
         sodipodi:rx="10.714286"
         sodipodi:cy="589.14795"
         sodipodi:cx="691.07147"
         sodipodi:type="arc"
         id="path4719-3-3"
         style="color:#000000;display:inline;overflow:visible;visibility:visible;fill:#ffffff;fill-opacity:1;fill-rule:evenodd;stroke:none;stroke-width:1px;stroke-linecap:butt;stroke-linejoin:miter;stroke-miterlimit:4;stroke-dasharray:none;stroke-dashoffset:0;stroke-opacity:1;marker:none;enable-background:accumulate" />
      <path
         sodipodi:nodetypes="cc"
         inkscape:connector-curvature="0"
         id="path4838-1"
         d="m 632.13489,636.58409 c 21.21151,15.63789 41.08123,15.8452 59.599,0.50508"
         style="fill:none;fill-rule:evenodd;stroke:#ffffff;stroke-width:7.00000095;stroke-linecap:round;stroke-linejoin:miter;stroke-miterlimit:4;stroke-dasharray:none;stroke-opacity:1" />
    </g>
    <g
       id="g6570"
       transform="translate(-20.714286,-21.428572)">
      <path
         d="m 334.14073,728.17398 a 81.071426,79.64286 0 0 1 7.68439,112.23705 81.071426,79.64286 0 0 1 -114.23062,7.83055 81.071426,79.64286 0 0 1 -8.25758,-112.19776 81.071426,79.64286 0 0 1 114.18919,-8.39353"
         sodipodi:open="true"
         sodipodi:end="5.4218479"
         sodipodi:start="5.4318835"
         sodipodi:ry="79.64286"
         sodipodi:rx="81.071426"
         sodipodi:cy="788.07648"
         sodipodi:cx="280.71429"
         sodipodi:type="arc"
         id="path4717-3"
         style="color:#000000;display:inline;overflow:visible;visibility:visible;fill:#ffea00;fill-opacity:1;fill-rule:evenodd;stroke:none;stroke-width:1px;stroke-linecap:butt;stroke-linejoin:miter;stroke-miterlimit:4;stroke-dasharray:none;stroke-dashoffset:0;stroke-opacity:1;marker:none;enable-background:accumulate" />
      <path
         d="m 260.27506,762.6064 a 10.714286,11.071428 0 0 1 1.01556,15.60246 10.714286,11.071428 0 0 1 -15.09656,1.08855 10.714286,11.071428 0 0 1 -1.09131,-15.59699 10.714286,11.071428 0 0 1 15.09108,-1.16682"
         sodipodi:open="true"
         sodipodi:end="5.4218479"
         sodipodi:start="5.4318835"
         sodipodi:ry="11.071428"
         sodipodi:rx="10.714286"
         sodipodi:cy="770.93365"
         sodipodi:cx="253.21429"
         sodipodi:type="arc"
         id="path4719-6"
         style="color:#000000;display:inline;overflow:visible;visibility:visible;fill:#ffffff;fill-opacity:1;fill-rule:evenodd;stroke:none;stroke-width:1px;stroke-linecap:butt;stroke-linejoin:miter;stroke-miterlimit:4;stroke-dasharray:none;stroke-dashoffset:0;stroke-opacity:1;marker:none;enable-background:accumulate" />
      <path
         d="m 321.70365,762.96352 a 10.714286,11.071428 0 0 1 1.01555,15.60246 10.714286,11.071428 0 0 1 -15.09655,1.08855 10.714286,11.071428 0 0 1 -1.09131,-15.597 10.714286,11.071428 0 0 1 15.09108,-1.16681"
         sodipodi:open="true"
         sodipodi:end="5.4218479"
         sodipodi:start="5.4318835"
         sodipodi:ry="11.071428"
         sodipodi:rx="10.714286"
         sodipodi:cy="771.29077"
         sodipodi:cx="314.64288"
         sodipodi:type="arc"
         id="path4719-3-1"
         style="color:#000000;display:inline;overflow:visible;visibility:visible;fill:#ffffff;fill-opacity:1;fill-rule:evenodd;stroke:none;stroke-width:1px;stroke-linecap:butt;stroke-linejoin:miter;stroke-miterlimit:4;stroke-dasharray:none;stroke-dashoffset:0;stroke-opacity:1;marker:none;enable-background:accumulate" />
      <path
         inkscape:connector-curvature="0"
         id="path4798-0"
         d="m 251.66571,821.75741 61.11423,0"
         style="fill:#ffffff;fill-rule:evenodd;stroke:#ffffff;stroke-width:7;stroke-linecap:round;stroke-linejoin:miter;stroke-miterlimit:4;stroke-dasharray:none;stroke-opacity:1" />
    </g>
    <g
       id="g6616"
       transform="translate(-47.857143,-15.714285)">
      <path
         d="m 524.14073,724.60257 a 81.071426,79.64286 0 0 1 7.68439,112.23705 81.071426,79.64286 0 0 1 -114.23062,7.83055 81.071426,79.64286 0 0 1 -8.25758,-112.19776 81.071426,79.64286 0 0 1 114.18919,-8.39353"
         sodipodi:open="true"
         sodipodi:end="5.4218479"
         sodipodi:start="5.4318835"
         sodipodi:ry="79.64286"
         sodipodi:rx="81.071426"
         sodipodi:cy="784.50507"
         sodipodi:cx="470.71429"
         sodipodi:type="arc"
         id="path4717-0"
         style="color:#000000;display:inline;overflow:visible;visibility:visible;fill:#ff8900;fill-opacity:1;fill-rule:evenodd;stroke:none;stroke-width:1px;stroke-linecap:butt;stroke-linejoin:miter;stroke-miterlimit:4;stroke-dasharray:none;stroke-dashoffset:0;stroke-opacity:1;marker:none;enable-background:accumulate" />
      <path
         d="m 450.27506,759.03493 a 10.714286,11.071428 0 0 1 1.01556,15.60246 10.714286,11.071428 0 0 1 -15.09656,1.08855 10.714286,11.071428 0 0 1 -1.09131,-15.597 10.714286,11.071428 0 0 1 15.09108,-1.16681"
         sodipodi:open="true"
         sodipodi:end="5.4218479"
         sodipodi:start="5.4318835"
         sodipodi:ry="11.071428"
         sodipodi:rx="10.714286"
         sodipodi:cy="767.36218"
         sodipodi:cx="443.21429"
         sodipodi:type="arc"
         id="path4719-61"
         style="color:#000000;display:inline;overflow:visible;visibility:visible;fill:#ffffff;fill-opacity:1;fill-rule:evenodd;stroke:none;stroke-width:1px;stroke-linecap:butt;stroke-linejoin:miter;stroke-miterlimit:4;stroke-dasharray:none;stroke-dashoffset:0;stroke-opacity:1;marker:none;enable-background:accumulate" />
      <path
         d="m 511.70365,759.39211 a 10.714286,11.071428 0 0 1 1.01555,15.60246 10.714286,11.071428 0 0 1 -15.09655,1.08855 10.714286,11.071428 0 0 1 -1.09131,-15.597 10.714286,11.071428 0 0 1 15.09108,-1.16681"
         sodipodi:open="true"
         sodipodi:end="5.4218479"
         sodipodi:start="5.4318835"
         sodipodi:ry="11.071428"
         sodipodi:rx="10.714286"
         sodipodi:cy="767.71936"
         sodipodi:cx="504.64288"
         sodipodi:type="arc"
         id="path4719-3-5"
         style="color:#000000;display:inline;overflow:visible;visibility:visible;fill:#ffffff;fill-opacity:1;fill-rule:evenodd;stroke:none;stroke-width:1px;stroke-linecap:butt;stroke-linejoin:miter;stroke-miterlimit:4;stroke-dasharray:none;stroke-dashoffset:0;stroke-opacity:1;marker:none;enable-background:accumulate" />
      <path
         sodipodi:nodetypes="cc"
         inkscape:connector-curvature="0"
         id="path4736"
         d="m 438.7194,814.58736 c 29.22354,-6.02836 50.19361,-2.44039 62.14285,1.42857"
         style="fill:none;fill-rule:evenodd;stroke:#ffffff;stroke-width:7;stroke-linecap:round;stroke-linejoin:miter;stroke-miterlimit:4;stroke-dasharray:none;stroke-opacity:1" />
    </g>
    <g
       id="g6545"
       transform="translate(-20,-31.428571)">
      <path
         d="m 332.71215,899.60257 a 81.071426,79.64286 0 0 1 7.68438,112.23703 81.071426,79.64286 0 0 1 -114.23062,7.8306 81.071426,79.64286 0 0 1 -8.25757,-112.19779 81.071426,79.64286 0 0 1 114.18918,-8.39353"
         sodipodi:open="true"
         sodipodi:end="5.4218479"
         sodipodi:start="5.4318835"
         sodipodi:ry="79.64286"
         sodipodi:rx="81.071426"
         sodipodi:cy="959.50507"
         sodipodi:cx="279.28571"
         sodipodi:type="arc"
         id="path4717-6"
         style="color:#000000;display:inline;overflow:visible;visibility:visible;fill:#ff0000;fill-opacity:1;fill-rule:evenodd;stroke:none;stroke-width:1px;stroke-linecap:butt;stroke-linejoin:miter;stroke-miterlimit:4;stroke-dasharray:none;stroke-dashoffset:0;stroke-opacity:1;marker:none;enable-background:accumulate" />
      <path
         d="m 258.84645,934.03493 a 10.714286,11.071428 0 0 1 1.01556,15.60246 10.714286,11.071428 0 0 1 -15.09656,1.08855 10.714286,11.071428 0 0 1 -1.09131,-15.597 10.714286,11.071428 0 0 1 15.09109,-1.16681"
         sodipodi:open="true"
         sodipodi:end="5.4218479"
         sodipodi:start="5.4318835"
         sodipodi:ry="11.071428"
         sodipodi:rx="10.714286"
         sodipodi:cy="942.36218"
         sodipodi:cx="251.78569"
         sodipodi:type="arc"
         id="path4719-5"
         style="color:#000000;display:inline;overflow:visible;visibility:visible;fill:#ffffff;fill-opacity:1;fill-rule:evenodd;stroke:none;stroke-width:1px;stroke-linecap:butt;stroke-linejoin:miter;stroke-miterlimit:4;stroke-dasharray:none;stroke-dashoffset:0;stroke-opacity:1;marker:none;enable-background:accumulate" />
      <path
         d="m 320.27506,934.39211 a 10.714286,11.071428 0 0 1 1.01556,15.60246 10.714286,11.071428 0 0 1 -15.09656,1.08855 10.714286,11.071428 0 0 1 -1.09131,-15.597 10.714286,11.071428 0 0 1 15.09108,-1.16681"
         sodipodi:open="true"
         sodipodi:end="5.4218479"
         sodipodi:start="5.4318835"
         sodipodi:ry="11.071428"
         sodipodi:rx="10.714286"
         sodipodi:cy="942.71936"
         sodipodi:cx="313.21429"
         sodipodi:type="arc"
         id="path4719-3-6"
         style="color:#000000;display:inline;overflow:visible;visibility:visible;fill:#ffffff;fill-opacity:1;fill-rule:evenodd;stroke:none;stroke-width:1px;stroke-linecap:butt;stroke-linejoin:miter;stroke-miterlimit:4;stroke-dasharray:none;stroke-dashoffset:0;stroke-opacity:1;marker:none;enable-background:accumulate" />
      <path
         sodipodi:nodetypes="cc"
         inkscape:connector-curvature="0"
         id="path4736-9"
         d="m 246.78572,1002.7193 c 22.69667,-24.30355 43.25438,-21.8702 62.14285,1.4286"
         style="fill:none;fill-rule:evenodd;stroke:#ffffff;stroke-width:7;stroke-linecap:round;stroke-linejoin:miter;stroke-miterlimit:4;stroke-dasharray:none;stroke-opacity:1" />
      <path
         sodipodi:nodetypes="ssscs"
         inkscape:connector-curvature="0"
         id="path4738"
         d="m 242.51981,973.86466 c -0.96806,2.89705 -2.65225,3.20364 -3.76515,0.68542 -1.11291,-2.51823 -1.27817,-6.88148 -0.27218,-9.8209 3.67962,-10.7515 2.75873,-7.69704 3.93467,-1.5204 0.95743,3.86938 1.07072,7.75883 0.10266,10.65588 z"
         style="color:#000000;display:inline;overflow:visible;visibility:visible;fill:#ffffff;fill-opacity:1;fill-rule:evenodd;stroke:none;stroke-width:0.54400003;stroke-linecap:butt;stroke-linejoin:miter;stroke-miterlimit:4;stroke-dasharray:none;stroke-dashoffset:0;stroke-opacity:1;marker:none;enable-background:accumulate" />
    </g>
    <g
       id="g6537"
       transform="translate(-47.142857,-30.000001)">
      <path
         d="m 522.71215,899.60257 a 81.071426,79.64286 0 0 1 7.68438,112.23703 81.071426,79.64286 0 0 1 -114.23062,7.8306 81.071426,79.64286 0 0 1 -8.25757,-112.19779 81.071426,79.64286 0 0 1 114.18918,-8.39353"
         sodipodi:open="true"
         sodipodi:end="5.4218479"
         sodipodi:start="5.4318835"
         sodipodi:ry="79.64286"
         sodipodi:rx="81.071426"
         sodipodi:cy="959.50507"
         sodipodi:cx="469.28571"
         sodipodi:type="arc"
         id="path4717-6-7"
         style="color:#000000;display:inline;overflow:visible;visibility:visible;fill:#ff001d;fill-opacity:1;fill-rule:evenodd;stroke:none;stroke-width:1px;stroke-linecap:butt;stroke-linejoin:miter;stroke-miterlimit:4;stroke-dasharray:none;stroke-dashoffset:0;stroke-opacity:1;marker:none;enable-background:accumulate" />
      <path
         d="m 448.84647,934.03493 a 10.714286,11.071428 0 0 1 1.01556,15.60246 10.714286,11.071428 0 0 1 -15.09656,1.08855 10.714286,11.071428 0 0 1 -1.09131,-15.597 10.714286,11.071428 0 0 1 15.09108,-1.16681"
         sodipodi:open="true"
         sodipodi:end="5.4218479"
         sodipodi:start="5.4318835"
         sodipodi:ry="11.071428"
         sodipodi:rx="10.714286"
         sodipodi:cy="942.36218"
         sodipodi:cx="441.78571"
         sodipodi:type="arc"
         id="path4719-5-4"
         style="color:#000000;display:inline;overflow:visible;visibility:visible;fill:#ffffff;fill-opacity:1;fill-rule:evenodd;stroke:none;stroke-width:1px;stroke-linecap:butt;stroke-linejoin:miter;stroke-miterlimit:4;stroke-dasharray:none;stroke-dashoffset:0;stroke-opacity:1;marker:none;enable-background:accumulate" />
      <path
         d="m 510.27506,934.39211 a 10.714286,11.071428 0 0 1 1.01556,15.60246 10.714286,11.071428 0 0 1 -15.09656,1.08855 10.714286,11.071428 0 0 1 -1.09131,-15.597 10.714286,11.071428 0 0 1 15.09108,-1.16681"
         sodipodi:open="true"
         sodipodi:end="5.4218479"
         sodipodi:start="5.4318835"
         sodipodi:ry="11.071428"
         sodipodi:rx="10.714286"
         sodipodi:cy="942.71936"
         sodipodi:cx="503.21429"
         sodipodi:type="arc"
         id="path4719-3-6-5"
         style="color:#000000;display:inline;overflow:visible;visibility:visible;fill:#ffffff;fill-opacity:1;fill-rule:evenodd;stroke:none;stroke-width:1px;stroke-linecap:butt;stroke-linejoin:miter;stroke-miterlimit:4;stroke-dasharray:none;stroke-dashoffset:0;stroke-opacity:1;marker:none;enable-background:accumulate" />
      <path
         sodipodi:nodetypes="cc"
         inkscape:connector-curvature="0"
         id="path4736-9-2"
         d="m 436.78574,1002.7194 c 22.69667,-24.30364 43.25438,-21.87029 62.14285,1.4285"
         style="fill:none;fill-rule:evenodd;stroke:#ffffff;stroke-width:7;stroke-linecap:round;stroke-linejoin:miter;stroke-miterlimit:4;stroke-dasharray:none;stroke-opacity:1" />
      <path
         sodipodi:nodetypes="ssscs"
         inkscape:connector-curvature="0"
         id="path4738-5"
         d="m 432.51983,973.86467 c -0.96806,2.89705 -2.65225,3.20364 -3.76515,0.68542 -1.11291,-2.51823 -1.27817,-6.88148 -0.27218,-9.8209 3.67962,-10.7515 2.75873,-7.69704 3.93467,-1.5204 0.95743,3.86938 1.07072,7.75883 0.10266,10.65588 z"
         style="color:#000000;display:inline;overflow:visible;visibility:visible;fill:#ffffff;fill-opacity:1;fill-rule:evenodd;stroke:none;stroke-width:0.54400003;stroke-linecap:butt;stroke-linejoin:miter;stroke-miterlimit:4;stroke-dasharray:none;stroke-dashoffset:0;stroke-opacity:1;marker:none;enable-background:accumulate" />
      <path
         sodipodi:nodetypes="ssscs"
         inkscape:connector-curvature="0"
         id="path4738-5-4"
         d="m 511.55579,974.2953 c 0.96806,2.89705 2.65225,3.20364 3.76515,0.68542 1.11291,-2.51823 1.27817,-6.88148 0.27218,-9.8209 -3.67962,-10.7515 -2.75873,-7.69704 -3.93467,-1.5204 -0.95743,3.86938 -1.07072,7.75883 -0.10266,10.65588 z"
         style="color:#000000;display:inline;overflow:visible;visibility:visible;fill:#ffffff;fill-opacity:1;fill-rule:evenodd;stroke:none;stroke-width:0.54400003;stroke-linecap:butt;stroke-linejoin:miter;stroke-miterlimit:4;stroke-dasharray:none;stroke-dashoffset:0;stroke-opacity:1;marker:none;enable-background:accumulate" />
    </g>
    <g
       id="g6552"
       transform="translate(0.71428572,-35)">
      <path
         d="m 148.42644,903.88827 a 81.071426,79.64286 0 0 1 7.68439,112.23703 81.071426,79.64286 0 0 1 -114.230628,7.8306 81.071426,79.64286 0 0 1 -8.257572,-112.19779 81.071426,79.64286 0 0 1 114.18919,-8.39353"
         sodipodi:open="true"
         sodipodi:end="5.4218479"
         sodipodi:start="5.4318835"
         sodipodi:ry="79.64286"
         sodipodi:rx="81.071426"
         sodipodi:cy="963.79077"
         sodipodi:cx="95"
         sodipodi:type="arc"
         id="path4717-0-4"
         style="color:#000000;display:inline;overflow:visible;visibility:visible;fill:#ff3900;fill-opacity:1;fill-rule:evenodd;stroke:none;stroke-width:1px;stroke-linecap:butt;stroke-linejoin:miter;stroke-miterlimit:4;stroke-dasharray:none;stroke-dashoffset:0;stroke-opacity:1;marker:none;enable-background:accumulate" />
      <path
         d="m 74.560763,938.3207 a 10.714286,11.071428 0 0 1 1.015558,15.60246 10.714286,11.071428 0 0 1 -15.096559,1.08855 10.714286,11.071428 0 0 1 -1.091309,-15.597 10.714286,11.071428 0 0 1 15.091083,-1.16681"
         sodipodi:open="true"
         sodipodi:end="5.4218479"
         sodipodi:start="5.4318835"
         sodipodi:ry="11.071428"
         sodipodi:rx="10.714286"
         sodipodi:cy="946.64795"
         sodipodi:cx="67.5"
         sodipodi:type="arc"
         id="path4719-61-4"
         style="color:#000000;display:inline;overflow:visible;visibility:visible;fill:#ffffff;fill-opacity:1;fill-rule:evenodd;stroke:none;stroke-width:1px;stroke-linecap:butt;stroke-linejoin:miter;stroke-miterlimit:4;stroke-dasharray:none;stroke-dashoffset:0;stroke-opacity:1;marker:none;enable-background:accumulate" />
      <path
         d="m 135.98935,938.67781 a 10.714286,11.071428 0 0 1 1.01556,15.60246 10.714286,11.071428 0 0 1 -15.09656,1.08855 10.714286,11.071428 0 0 1 -1.09131,-15.59699 10.714286,11.071428 0 0 1 15.09108,-1.16682"
         sodipodi:open="true"
         sodipodi:end="5.4218479"
         sodipodi:start="5.4318835"
         sodipodi:ry="11.071428"
         sodipodi:rx="10.714286"
         sodipodi:cy="947.00507"
         sodipodi:cx="128.92859"
         sodipodi:type="arc"
         id="path4719-3-5-3"
         style="color:#000000;display:inline;overflow:visible;visibility:visible;fill:#ffffff;fill-opacity:1;fill-rule:evenodd;stroke:none;stroke-width:1px;stroke-linecap:butt;stroke-linejoin:miter;stroke-miterlimit:4;stroke-dasharray:none;stroke-dashoffset:0;stroke-opacity:1;marker:none;enable-background:accumulate" />
      <path
         sodipodi:nodetypes="cc"
         inkscape:connector-curvature="0"
         id="path4736-9-7"
         d="m 64.64379,1009.5028 c 22.69667,-24.30366 43.25438,-21.87031 62.14285,1.4286"
         style="fill:none;fill-rule:evenodd;stroke:#ffffff;stroke-width:7;stroke-linecap:round;stroke-linejoin:miter;stroke-miterlimit:4;stroke-dasharray:none;stroke-opacity:1" />
    </g>
    <g
       id="g7320"
       transform="translate(-53.571429,1.4285714)">
      <path
         d="m 528.42644,546.74539 a 81.071426,79.64286 0 0 1 7.68439,112.23705 81.071426,79.64286 0 0 1 -114.23063,7.83055 81.071426,79.64286 0 0 1 -8.25757,-112.19776 81.071426,79.64286 0 0 1 114.18919,-8.39353"
         sodipodi:open="true"
         sodipodi:end="5.4218479"
         sodipodi:start="5.4318835"
         sodipodi:ry="79.64286"
         sodipodi:rx="81.071426"
         sodipodi:cy="606.64789"
         sodipodi:cx="475"
         sodipodi:type="arc"
         id="path4717-68"
         style="color:#000000;display:inline;overflow:visible;visibility:visible;fill:#88ff00;fill-opacity:1;fill-rule:evenodd;stroke:none;stroke-width:1px;stroke-linecap:butt;stroke-linejoin:miter;stroke-miterlimit:4;stroke-dasharray:none;stroke-dashoffset:0;stroke-opacity:1;marker:none;enable-background:accumulate" />
      <path
         d="m 454.56076,581.17781 a 10.714286,11.071428 0 0 1 1.01556,15.60246 10.714286,11.071428 0 0 1 -15.09656,1.08855 10.714286,11.071428 0 0 1 -1.09131,-15.59699 10.714286,11.071428 0 0 1 15.09109,-1.16682"
         sodipodi:open="true"
         sodipodi:end="5.4218479"
         sodipodi:start="5.4318835"
         sodipodi:ry="11.071428"
         sodipodi:rx="10.714286"
         sodipodi:cy="589.50507"
         sodipodi:cx="447.5"
         sodipodi:type="arc"
         id="path4719-84"
         style="color:#000000;display:inline;overflow:visible;visibility:visible;fill:#ffffff;fill-opacity:1;fill-rule:evenodd;stroke:none;stroke-width:1px;stroke-linecap:butt;stroke-linejoin:miter;stroke-miterlimit:4;stroke-dasharray:none;stroke-dashoffset:0;stroke-opacity:1;marker:none;enable-background:accumulate" />
      <path
         d="m 515.98935,581.53493 a 10.714286,11.071428 0 0 1 1.01556,15.60246 10.714286,11.071428 0 0 1 -15.09656,1.08855 10.714286,11.071428 0 0 1 -1.09131,-15.597 10.714286,11.071428 0 0 1 15.09108,-1.16681"
         sodipodi:open="true"
         sodipodi:end="5.4218479"
         sodipodi:start="5.4318835"
         sodipodi:ry="11.071428"
         sodipodi:rx="10.714286"
         sodipodi:cy="589.86218"
         sodipodi:cx="508.92859"
         sodipodi:type="arc"
         id="path4719-3-31"
         style="color:#000000;display:inline;overflow:visible;visibility:visible;fill:#ffffff;fill-opacity:1;fill-rule:evenodd;stroke:none;stroke-width:1px;stroke-linecap:butt;stroke-linejoin:miter;stroke-miterlimit:4;stroke-dasharray:none;stroke-dashoffset:0;stroke-opacity:1;marker:none;enable-background:accumulate" />
      <path
         sodipodi:nodetypes="cc"
         inkscape:connector-curvature="0"
         id="path4838-4"
         d="m 439.97715,632.96191 c 20.35888,17.53752 48.36409,18.82628 76.26652,-2.0203"
         style="fill:none;fill-rule:evenodd;stroke:#ffffff;stroke-width:7.00000095;stroke-linecap:round;stroke-linejoin:miter;stroke-miterlimit:4;stroke-dasharray:none;stroke-opacity:1" />
    </g>
    <g
       id="g6600"
       transform="translate(-7.1428572,-8.5714286)">
      <path
         d="M 156.28359,555.31686 A 81.071426,79.64286 0 0 1 163.96797,667.55391 81.071426,79.64286 0 0 1 49.737349,675.38446 81.071426,79.64286 0 0 1 41.479777,563.1867 81.071426,79.64286 0 0 1 155.66897,554.79317"
         sodipodi:open="true"
         sodipodi:end="5.4218479"
         sodipodi:start="5.4318835"
         sodipodi:ry="79.64286"
         sodipodi:rx="81.071426"
         sodipodi:cy="615.21936"
         sodipodi:cx="102.85715"
         sodipodi:type="arc"
         id="path4717-06"
         style="color:#000000;display:inline;overflow:visible;visibility:visible;fill:#00ff00;fill-opacity:1;fill-rule:evenodd;stroke:none;stroke-width:1px;stroke-linecap:butt;stroke-linejoin:miter;stroke-miterlimit:4;stroke-dasharray:none;stroke-dashoffset:0;stroke-opacity:1;marker:none;enable-background:accumulate" />
      <path
         d="m 82.41791,589.74922 a 10.714286,11.071428 0 0 1 1.015558,15.60246 10.714286,11.071428 0 0 1 -15.096559,1.08855 10.714286,11.071428 0 0 1 -1.091309,-15.59699 10.714286,11.071428 0 0 1 15.091083,-1.16682"
         sodipodi:open="true"
         sodipodi:end="5.4218479"
         sodipodi:start="5.4318835"
         sodipodi:ry="11.071428"
         sodipodi:rx="10.714286"
         sodipodi:cy="598.07648"
         sodipodi:cx="75.357147"
         sodipodi:type="arc"
         id="path4719-89"
         style="color:#000000;display:inline;overflow:visible;visibility:visible;fill:#ffffff;fill-opacity:1;fill-rule:evenodd;stroke:none;stroke-width:1px;stroke-linecap:butt;stroke-linejoin:miter;stroke-miterlimit:4;stroke-dasharray:none;stroke-dashoffset:0;stroke-opacity:1;marker:none;enable-background:accumulate" />
      <path
         d="m 143.8465,590.1064 a 10.714286,11.071428 0 0 1 1.01556,15.60246 10.714286,11.071428 0 0 1 -15.09656,1.08855 10.714286,11.071428 0 0 1 -1.09131,-15.59699 10.714286,11.071428 0 0 1 15.09108,-1.16682"
         sodipodi:open="true"
         sodipodi:end="5.4218479"
         sodipodi:start="5.4318835"
         sodipodi:ry="11.071428"
         sodipodi:rx="10.714286"
         sodipodi:cy="598.43365"
         sodipodi:cx="136.78574"
         sodipodi:type="arc"
         id="path4719-3-2"
         style="color:#000000;display:inline;overflow:visible;visibility:visible;fill:#ffffff;fill-opacity:1;fill-rule:evenodd;stroke:none;stroke-width:1px;stroke-linecap:butt;stroke-linejoin:miter;stroke-miterlimit:4;stroke-dasharray:none;stroke-dashoffset:0;stroke-opacity:1;marker:none;enable-background:accumulate" />
      <path
         sodipodi:nodetypes="cc"
         inkscape:connector-curvature="0"
         id="path4838-6"
         d="m 69.262879,640.81905 c 18.99855,28.36242 54.608691,31.37518 76.266521,-2.0203"
         style="fill:none;fill-rule:evenodd;stroke:#ffffff;stroke-width:7.00000095;stroke-linecap:round;stroke-linejoin:miter;stroke-miterlimit:4;stroke-dasharray:none;stroke-opacity:1" />
      <path
         sodipodi:nodetypes="cc"
         inkscape:connector-curvature="0"
         id="path6374"
         d="m 60,577.36221 c 9.835299,-9.45216 19.200877,-13.26766 27.142858,0"
         style="fill:none;fill-rule:evenodd;stroke:#ffffff;stroke-width:5;stroke-linecap:butt;stroke-linejoin:miter;stroke-miterlimit:4;stroke-dasharray:none;stroke-opacity:1" />
      <path
         sodipodi:nodetypes="cc"
         inkscape:connector-curvature="0"
         id="path6374-6"
         d="m 152.34923,577.71198 c -9.8353,-9.45216 -19.20088,-13.26766 -27.14286,0"
         style="fill:none;fill-rule:evenodd;stroke:#ffffff;stroke-width:5;stroke-linecap:butt;stroke-linejoin:miter;stroke-miterlimit:4;stroke-dasharray:none;stroke-opacity:1" />
    </g>
    <g
       id="g6622"
       transform="translate(-74.285714,-20)">
      <path
         d="m 713.42644,728.88827 a 81.071426,79.64286 0 0 1 7.68439,112.23706 81.071426,79.64286 0 0 1 -114.23063,7.83054 81.071426,79.64286 0 0 1 -8.25757,-112.19776 81.071426,79.64286 0 0 1 114.18919,-8.39353"
         sodipodi:open="true"
         sodipodi:end="5.4218479"
         sodipodi:start="5.4318835"
         sodipodi:ry="79.64286"
         sodipodi:rx="81.071426"
         sodipodi:cy="788.79077"
         sodipodi:cx="660"
         sodipodi:type="arc"
         id="path4717-0-4-9"
         style="color:#000000;display:inline;overflow:visible;visibility:visible;fill:#ff5500;fill-opacity:1;fill-rule:evenodd;stroke:none;stroke-width:1px;stroke-linecap:butt;stroke-linejoin:miter;stroke-miterlimit:4;stroke-dasharray:none;stroke-dashoffset:0;stroke-opacity:1;marker:none;enable-background:accumulate" />
      <path
         d="m 639.56076,763.3207 a 10.714286,11.071428 0 0 1 1.01556,15.60246 10.714286,11.071428 0 0 1 -15.09656,1.08855 10.714286,11.071428 0 0 1 -1.09131,-15.597 10.714286,11.071428 0 0 1 15.09109,-1.16681"
         sodipodi:open="true"
         sodipodi:end="5.4218479"
         sodipodi:start="5.4318835"
         sodipodi:ry="11.071428"
         sodipodi:rx="10.714286"
         sodipodi:cy="771.64795"
         sodipodi:cx="632.5"
         sodipodi:type="arc"
         id="path4719-61-4-5"
         style="color:#000000;display:inline;overflow:visible;visibility:visible;fill:#ffffff;fill-opacity:1;fill-rule:evenodd;stroke:none;stroke-width:1px;stroke-linecap:butt;stroke-linejoin:miter;stroke-miterlimit:4;stroke-dasharray:none;stroke-dashoffset:0;stroke-opacity:1;marker:none;enable-background:accumulate" />
      <path
         d="m 700.98935,763.67781 a 10.714286,11.071428 0 0 1 1.01556,15.60246 10.714286,11.071428 0 0 1 -15.09656,1.08855 10.714286,11.071428 0 0 1 -1.09131,-15.59699 10.714286,11.071428 0 0 1 15.09108,-1.16682"
         sodipodi:open="true"
         sodipodi:end="5.4218479"
         sodipodi:start="5.4318835"
         sodipodi:ry="11.071428"
         sodipodi:rx="10.714286"
         sodipodi:cy="772.00507"
         sodipodi:cx="693.92859"
         sodipodi:type="arc"
         id="path4719-3-5-3-0"
         style="color:#000000;display:inline;overflow:visible;visibility:visible;fill:#ffffff;fill-opacity:1;fill-rule:evenodd;stroke:none;stroke-width:1px;stroke-linecap:butt;stroke-linejoin:miter;stroke-miterlimit:4;stroke-dasharray:none;stroke-dashoffset:0;stroke-opacity:1;marker:none;enable-background:accumulate" />
      <path
         sodipodi:nodetypes="cc"
         inkscape:connector-curvature="0"
         id="path4736-9-7-4"
         d="m 629.14234,827.6774 c 23.06297,-15.34053 43.95247,-13.80459 63.14578,0.90173"
         style="fill:none;fill-rule:evenodd;stroke:#ffffff;stroke-width:7;stroke-linecap:round;stroke-linejoin:miter;stroke-miterlimit:4;stroke-dasharray:none;stroke-opacity:1" />
    </g>
    <g
       id="g7254"
       transform="translate(1.4285714,-11.428571)">
      <path
         d="m 148.42645,718.17398 a 81.071426,79.64286 0 0 1 7.68438,112.23705 81.071426,79.64286 0 0 1 -114.230621,7.83055 81.071426,79.64286 0 0 1 -8.257572,-112.19776 81.071426,79.64286 0 0 1 114.189193,-8.39353"
         sodipodi:open="true"
         sodipodi:end="5.4218479"
         sodipodi:start="5.4318835"
         sodipodi:ry="79.64286"
         sodipodi:rx="81.071426"
         sodipodi:cy="778.07648"
         sodipodi:cx="95.000008"
         sodipodi:type="arc"
         id="path4717-7"
         style="color:#000000;display:inline;overflow:visible;visibility:visible;fill:#e9ff2a;fill-opacity:1;fill-rule:evenodd;stroke:none;stroke-width:1px;stroke-linecap:butt;stroke-linejoin:miter;stroke-miterlimit:4;stroke-dasharray:none;stroke-dashoffset:0;stroke-opacity:1;marker:none;enable-background:accumulate" />
      <path
         d="m 74.560771,752.60634 a 10.714286,11.071428 0 0 1 1.015558,15.60246 10.714286,11.071428 0 0 1 -15.096559,1.08855 10.714286,11.071428 0 0 1 -1.091309,-15.597 10.714286,11.071428 0 0 1 15.091083,-1.16681"
         sodipodi:open="true"
         sodipodi:end="5.4218479"
         sodipodi:start="5.4318835"
         sodipodi:ry="11.071428"
         sodipodi:rx="10.714286"
         sodipodi:cy="760.93359"
         sodipodi:cx="67.500008"
         sodipodi:type="arc"
         id="path4719-8"
         style="color:#000000;display:inline;overflow:visible;visibility:visible;fill:#ffffff;fill-opacity:1;fill-rule:evenodd;stroke:none;stroke-width:1px;stroke-linecap:butt;stroke-linejoin:miter;stroke-miterlimit:4;stroke-dasharray:none;stroke-dashoffset:0;stroke-opacity:1;marker:none;enable-background:accumulate" />
      <path
         d="m 135.98935,752.96352 a 10.714286,11.071428 0 0 1 1.01556,15.60246 10.714286,11.071428 0 0 1 -15.09656,1.08855 10.714286,11.071428 0 0 1 -1.09131,-15.597 10.714286,11.071428 0 0 1 15.09108,-1.16681"
         sodipodi:open="true"
         sodipodi:end="5.4218479"
         sodipodi:start="5.4318835"
         sodipodi:ry="11.071428"
         sodipodi:rx="10.714286"
         sodipodi:cy="761.29077"
         sodipodi:cx="128.92859"
         sodipodi:type="arc"
         id="path4719-3-4"
         style="color:#000000;display:inline;overflow:visible;visibility:visible;fill:#ffffff;fill-opacity:1;fill-rule:evenodd;stroke:none;stroke-width:1px;stroke-linecap:butt;stroke-linejoin:miter;stroke-miterlimit:4;stroke-dasharray:none;stroke-dashoffset:0;stroke-opacity:1;marker:none;enable-background:accumulate" />
      <path
         sodipodi:nodetypes="cc"
         inkscape:connector-curvature="0"
         id="path4736-8"
         d="m 66.071927,811.47361 c 29.22354,6.02836 50.193613,2.44039 62.142853,-1.42857"
         style="fill:none;fill-rule:evenodd;stroke:#ffffff;stroke-width:7;stroke-linecap:round;stroke-linejoin:miter;stroke-miterlimit:4;stroke-dasharray:none;stroke-opacity:1" />
    </g>
  </g>
</svg>
