<?xml version="1.0" encoding="UTF-8" standalone="no"?>
<!-- Created with Inkscape (http://www.inkscape.org/) -->

<svg
   xmlns:dc="http://purl.org/dc/elements/1.1/"
   xmlns:cc="http://creativecommons.org/ns#"
   xmlns:rdf="http://www.w3.org/1999/02/22-rdf-syntax-ns#"
   xmlns:svg="http://www.w3.org/2000/svg"
   xmlns="http://www.w3.org/2000/svg"
   xmlns:sodipodi="http://sodipodi.sourceforge.net/DTD/sodipodi-0.dtd"
   xmlns:inkscape="http://www.inkscape.org/namespaces/inkscape"
   width="113.93872mm"
   height="79.281578mm"
   viewBox="0 0 403.71991 280.91897"
   id="svg4246"
   version="1.1"
   inkscape:version="0.91 r13725"
   sodipodi:docname="ExecuBot5000BeepBoop.svg"
   inkscape:export-filename="/home/inmysocks/Documents/SVG Icons/AndMyAxe/ExecuBot5000V2.png"
   inkscape:export-xdpi="74"
   inkscape:export-ydpi="74">
  <defs
     id="defs4248" />
  <sodipodi:namedview
     id="base"
     pagecolor="#ffffff"
     bordercolor="#666666"
     borderopacity="1.0"
     inkscape:pageopacity="0.0"
     inkscape:pageshadow="2"
     inkscape:zoom="1.4"
     inkscape:cx="44.55641"
     inkscape:cy="111.78568"
     inkscape:document-units="px"
     inkscape:current-layer="layer1"
     showgrid="false"
     inkscape:window-width="1920"
     inkscape:window-height="1026"
     inkscape:window-x="0"
     inkscape:window-y="27"
     inkscape:window-maximized="1"
     fit-margin-top="0"
     fit-margin-left="0"
     fit-margin-right="0"
     fit-margin-bottom="0" />
  <metadata
     id="metadata4251">
    <rdf:RDF>
      <cc:Work
         rdf:about="">
        <dc:format>image/svg+xml</dc:format>
        <dc:type
           rdf:resource="http://purl.org/dc/dcmitype/StillImage" />
        <dc:title></dc:title>
      </cc:Work>
    </rdf:RDF>
  </metadata>
  <g
     inkscape:label="Layer 1"
     inkscape:groupmode="layer"
     id="layer1"
     transform="translate(-187.74017,-306.08607)">
    <rect
       style="opacity:1;fill:#cccccc;fill-opacity:1;fill-rule:nonzero;stroke:#000000;stroke-width:5;stroke-linecap:round;stroke-linejoin:miter;stroke-miterlimit:4;stroke-dasharray:none;stroke-opacity:1"
       id="rect4794"
       width="384.28571"
       height="160.71428"
       x="190.71428"
       y="423.79077"
       rx="18.2143"
       ry="21.2132" />
    <path
       style="color:#000000;display:inline;overflow:visible;visibility:visible;fill:#1a1a1a;fill-opacity:1;fill-rule:evenodd;stroke:#000000;stroke-width:1px;stroke-linecap:butt;stroke-linejoin:miter;stroke-miterlimit:4;stroke-dasharray:none;stroke-dashoffset:0;stroke-opacity:1;marker:none;enable-background:accumulate"
       id="path4796"
       sodipodi:type="arc"
       sodipodi:cx="261.42859"
       sodipodi:cy="481.64792"
       sodipodi:rx="21.428572"
       sodipodi:ry="22.142857"
       sodipodi:start="5.4318835"
       sodipodi:end="5.4218479"
       sodipodi:open="true"
       d="m 275.55012,464.99341 a 21.428572,22.142857 0 0 1 2.03111,31.20492 21.428572,22.142857 0 0 1 -30.19312,2.1771 21.428572,22.142857 0 0 1 -2.18262,-31.19399 21.428572,22.142857 0 0 1 30.18217,-2.33363" />
    <path
       style="color:#000000;display:inline;overflow:visible;visibility:visible;fill:#1a1a1a;fill-opacity:1;fill-rule:evenodd;stroke:#000000;stroke-width:1px;stroke-linecap:butt;stroke-linejoin:miter;stroke-miterlimit:4;stroke-dasharray:none;stroke-dashoffset:0;stroke-opacity:1;marker:none;enable-background:accumulate"
       id="path4798"
       sodipodi:type="arc"
       sodipodi:cx="506.78574"
       sodipodi:cy="481.2908"
       sodipodi:rx="24.642857"
       sodipodi:ry="22.5"
       sodipodi:start="5.4318835"
       sodipodi:end="5.4218479"
       sodipodi:open="true"
       d="m 523.02549,464.36768 a 24.642857,22.5 0 0 1 2.33578,31.70822 24.642857,22.5 0 0 1 -34.72208,2.21222 24.642857,22.5 0 0 1 -2.51001,-31.69713 24.642857,22.5 0 0 1 34.70949,-2.37126" />
    <path
       style="fill:none;fill-rule:evenodd;stroke:#000000;stroke-width:1px;stroke-linecap:butt;stroke-linejoin:miter;stroke-opacity:1"
       d="m 332.85714,543.07649 c 52.89917,29.14284 65.17777,18.89007 103.57143,0.71429"
       id="path4800"
       inkscape:connector-curvature="0"
       sodipodi:nodetypes="cc" />
    <path
       style="fill:none;fill-rule:evenodd;stroke:#000000;stroke-width:3;stroke-linecap:butt;stroke-linejoin:miter;stroke-miterlimit:4;stroke-dasharray:none;stroke-opacity:1"
       d="m 295,422.3622 -5.71428,-82.85714"
       id="path4802"
       inkscape:connector-curvature="0"
       sodipodi:nodetypes="cc" />
    <path
       style="fill:none;fill-rule:evenodd;stroke:#000000;stroke-width:3;stroke-linecap:butt;stroke-linejoin:miter;stroke-miterlimit:4;stroke-dasharray:none;stroke-opacity:1"
       d="m 473.57143,422.3622 17.14286,-73.57142"
       id="path4804"
       inkscape:connector-curvature="0" />
    <path
       style="color:#000000;display:inline;overflow:visible;visibility:visible;fill:#ff0000;fill-opacity:1;fill-rule:evenodd;stroke:#000000;stroke-width:1px;stroke-linecap:butt;stroke-linejoin:miter;stroke-miterlimit:4;stroke-dasharray:none;stroke-dashoffset:0;stroke-opacity:1;marker:none;enable-background:accumulate"
       id="path4808"
       sodipodi:type="arc"
       sodipodi:cx="492.85715"
       sodipodi:cy="344.50507"
       sodipodi:rx="5.7142859"
       sodipodi:ry="5.7142859"
       sodipodi:start="5.4318835"
       sodipodi:end="5.4218479"
       sodipodi:open="true"
       d="m 496.62289,340.20713 a 5.7142859,5.7142859 0 0 1 0.54163,8.05288 5.7142859,5.7142859 0 0 1 -8.0515,0.56183 5.7142859,5.7142859 0 0 1 -0.58203,-8.05006 5.7142859,5.7142859 0 0 1 8.04858,-0.60223" />
    <path
       d="m 293.76574,333.77854 a 5.7142859,5.7142859 0 0 1 0.54163,8.05288 5.7142859,5.7142859 0 0 1 -8.0515,0.56184 5.7142859,5.7142859 0 0 1 -0.58203,-8.05007 5.7142859,5.7142859 0 0 1 8.04858,-0.60222"
       sodipodi:open="true"
       sodipodi:end="5.4218479"
       sodipodi:start="5.4318835"
       sodipodi:ry="5.7142859"
       sodipodi:rx="5.7142859"
       sodipodi:cy="338.07648"
       sodipodi:cx="290"
       sodipodi:type="arc"
       id="path4810"
       style="color:#000000;display:inline;overflow:visible;visibility:visible;fill:#ff0000;fill-opacity:1;fill-rule:evenodd;stroke:#000000;stroke-width:1px;stroke-linecap:butt;stroke-linejoin:miter;stroke-miterlimit:4;stroke-dasharray:none;stroke-dashoffset:0;stroke-opacity:1;marker:none;enable-background:accumulate" />
    <path
       style="fill:none;fill-rule:evenodd;stroke:#000000;stroke-width:4.30000019;stroke-linecap:butt;stroke-linejoin:miter;stroke-miterlimit:4;stroke-dasharray:none;stroke-opacity:1"
       d="m 306.94901,337.17831 29.33307,-1.34755 23.56573,-25.79873 16.76538,40.46973 26.03724,-37.87898 24.21566,29.23915 51.42902,0.68123"
       id="path4812"
       inkscape:connector-curvature="0" />
    <text
       xml:space="preserve"
       style="font-style:normal;font-weight:normal;font-size:43.36090088px;line-height:0%;font-family:Sans;letter-spacing:0px;word-spacing:0px;fill:#000000;fill-opacity:1;stroke:none;stroke-width:1px;stroke-linecap:butt;stroke-linejoin:miter;stroke-opacity:1"
       x="-126.47195"
       y="331.31223"
       id="text4142"
       sodipodi:linespacing="0%"
       transform="matrix(0.57641932,-0.51258009,0.86148258,0.96877595,0,0)"><tspan
         sodipodi:role="line"
         id="tspan4144"
         x="-126.47195"
         y="331.31223">Beep</tspan></text>
    <text
       xml:space="preserve"
       style="font-style:normal;font-weight:normal;font-size:45.83251953px;line-height:0%;font-family:Sans;letter-spacing:0px;word-spacing:0px;fill:#000000;fill-opacity:1;stroke:none;stroke-width:1px;stroke-linecap:butt;stroke-linejoin:miter;stroke-opacity:1"
       x="767.80786"
       y="-49.55508"
       id="text4146"
       sodipodi:linespacing="0%"
       transform="matrix(0.60082586,0.50280429,-0.8191611,0.97885647,0,0)"><tspan
         sodipodi:role="line"
         id="tspan4148"
         x="767.80786"
         y="-49.55508">Boop</tspan></text>
  </g>
</svg>
