<?xml version="1.0" encoding="UTF-8" standalone="no"?>
<!-- Created with Inkscape (http://www.inkscape.org/) -->

<svg
   xmlns:dc="http://purl.org/dc/elements/1.1/"
   xmlns:cc="http://creativecommons.org/ns#"
   xmlns:rdf="http://www.w3.org/1999/02/22-rdf-syntax-ns#"
   xmlns:svg="http://www.w3.org/2000/svg"
   xmlns="http://www.w3.org/2000/svg"
   xmlns:sodipodi="http://sodipodi.sourceforge.net/DTD/sodipodi-0.dtd"
   xmlns:inkscape="http://www.inkscape.org/namespaces/inkscape"
   width="45.760311mm"
   height="44.953964mm"
   viewBox="0 0 162.14284 159.2857"
   id="svg4169"
   version="1.1"
   inkscape:version="0.91 r13725"
   sodipodi:docname="Pain2.svg">
  <defs
     id="defs4171" />
  <sodipodi:namedview
     id="base"
     pagecolor="#ffffff"
     bordercolor="#666666"
     borderopacity="1.0"
     inkscape:pageopacity="0.0"
     inkscape:pageshadow="2"
     inkscape:zoom="1.979899"
     inkscape:cx="63.584407"
     inkscape:cy="74.705658"
     inkscape:document-units="px"
     inkscape:current-layer="layer1"
     showgrid="false"
     inkscape:window-width="1920"
     inkscape:window-height="1026"
     inkscape:window-x="0"
     inkscape:window-y="27"
     inkscape:window-maximized="1"
     fit-margin-top="0"
     fit-margin-left="0"
     fit-margin-right="0"
     fit-margin-bottom="0" />
  <metadata
     id="metadata4174">
    <rdf:RDF>
      <cc:Work
         rdf:about="">
        <dc:format>image/svg+xml</dc:format>
        <dc:type
           rdf:resource="http://purl.org/dc/dcmitype/StillImage" />
        <dc:title></dc:title>
      </cc:Work>
    </rdf:RDF>
  </metadata>
  <g
     inkscape:label="Layer 1"
     inkscape:groupmode="layer"
     id="layer1"
     transform="translate(-217.0127,-390.63935)">
    <g
       transform="translate(-176.91588,-136.36568)"
       id="g7320">
      <path
         d="m 528.42644,546.74539 a 81.071426,79.64286 0 0 1 7.68439,112.23705 81.071426,79.64286 0 0 1 -114.23063,7.83055 81.071426,79.64286 0 0 1 -8.25757,-112.19776 81.071426,79.64286 0 0 1 114.18919,-8.39353"
         sodipodi:open="true"
         sodipodi:end="5.4218479"
         sodipodi:start="5.4318835"
         sodipodi:ry="79.64286"
         sodipodi:rx="81.071426"
         sodipodi:cy="606.64789"
         sodipodi:cx="475"
         sodipodi:type="arc"
         id="path4717-68"
         style="color:#000000;display:inline;overflow:visible;visibility:visible;fill:#88ff00;fill-opacity:1;fill-rule:evenodd;stroke:none;stroke-width:1px;stroke-linecap:butt;stroke-linejoin:miter;stroke-miterlimit:4;stroke-dasharray:none;stroke-dashoffset:0;stroke-opacity:1;marker:none;enable-background:accumulate" />
      <path
         d="m 454.56076,581.17781 a 10.714286,11.071428 0 0 1 1.01556,15.60246 10.714286,11.071428 0 0 1 -15.09656,1.08855 10.714286,11.071428 0 0 1 -1.09131,-15.59699 10.714286,11.071428 0 0 1 15.09109,-1.16682"
         sodipodi:open="true"
         sodipodi:end="5.4218479"
         sodipodi:start="5.4318835"
         sodipodi:ry="11.071428"
         sodipodi:rx="10.714286"
         sodipodi:cy="589.50507"
         sodipodi:cx="447.5"
         sodipodi:type="arc"
         id="path4719-84"
         style="color:#000000;display:inline;overflow:visible;visibility:visible;fill:#ffffff;fill-opacity:1;fill-rule:evenodd;stroke:none;stroke-width:1px;stroke-linecap:butt;stroke-linejoin:miter;stroke-miterlimit:4;stroke-dasharray:none;stroke-dashoffset:0;stroke-opacity:1;marker:none;enable-background:accumulate" />
      <path
         d="m 515.98935,581.53493 a 10.714286,11.071428 0 0 1 1.01556,15.60246 10.714286,11.071428 0 0 1 -15.09656,1.08855 10.714286,11.071428 0 0 1 -1.09131,-15.597 10.714286,11.071428 0 0 1 15.09108,-1.16681"
         sodipodi:open="true"
         sodipodi:end="5.4218479"
         sodipodi:start="5.4318835"
         sodipodi:ry="11.071428"
         sodipodi:rx="10.714286"
         sodipodi:cy="589.86218"
         sodipodi:cx="508.92859"
         sodipodi:type="arc"
         id="path4719-3-31"
         style="color:#000000;display:inline;overflow:visible;visibility:visible;fill:#ffffff;fill-opacity:1;fill-rule:evenodd;stroke:none;stroke-width:1px;stroke-linecap:butt;stroke-linejoin:miter;stroke-miterlimit:4;stroke-dasharray:none;stroke-dashoffset:0;stroke-opacity:1;marker:none;enable-background:accumulate" />
      <path
         sodipodi:nodetypes="cc"
         inkscape:connector-curvature="0"
         id="path4838-4"
         d="m 439.97715,632.96191 c 20.35888,17.53752 48.36409,18.82628 76.26652,-2.0203"
         style="fill:none;fill-rule:evenodd;stroke:#ffffff;stroke-width:7.00000095;stroke-linecap:round;stroke-linejoin:miter;stroke-miterlimit:4;stroke-dasharray:none;stroke-opacity:1" />
    </g>
  </g>
</svg>
