<?xml version="1.0" encoding="UTF-8" standalone="no"?>
<!-- Created with Inkscape (http://www.inkscape.org/) -->

<svg
   xmlns:dc="http://purl.org/dc/elements/1.1/"
   xmlns:cc="http://creativecommons.org/ns#"
   xmlns:rdf="http://www.w3.org/1999/02/22-rdf-syntax-ns#"
   xmlns:svg="http://www.w3.org/2000/svg"
   xmlns="http://www.w3.org/2000/svg"
   xmlns:sodipodi="http://sodipodi.sourceforge.net/DTD/sodipodi-0.dtd"
   xmlns:inkscape="http://www.inkscape.org/namespaces/inkscape"
   width="45.760311mm"
   height="44.953964mm"
   viewBox="0 0 162.14284 159.2857"
   id="svg4169"
   version="1.1"
   inkscape:version="0.91 r13725"
   sodipodi:docname="Pain10.svg">
  <defs
     id="defs4171" />
  <sodipodi:namedview
     id="base"
     pagecolor="#ffffff"
     bordercolor="#666666"
     borderopacity="1.0"
     inkscape:pageopacity="0.0"
     inkscape:pageshadow="2"
     inkscape:zoom="1.979899"
     inkscape:cx="63.065979"
     inkscape:cy="74.518978"
     inkscape:document-units="px"
     inkscape:current-layer="layer1"
     showgrid="false"
     inkscape:window-width="1920"
     inkscape:window-height="1026"
     inkscape:window-x="0"
     inkscape:window-y="27"
     inkscape:window-maximized="1"
     fit-margin-top="0"
     fit-margin-left="0"
     fit-margin-right="0"
     fit-margin-bottom="0" />
  <metadata
     id="metadata4174">
    <rdf:RDF>
      <cc:Work
         rdf:about="">
        <dc:format>image/svg+xml</dc:format>
        <dc:type
           rdf:resource="http://purl.org/dc/dcmitype/StillImage" />
        <dc:title></dc:title>
      </cc:Work>
    </rdf:RDF>
  </metadata>
  <g
     inkscape:label="Layer 1"
     inkscape:groupmode="layer"
     id="layer1"
     transform="translate(-217.53113,-390.45266)">
    <g
       id="g6537"
       transform="translate(-170.68316,-489.40955)">
      <path
         d="m 522.71215,899.60257 a 81.071426,79.64286 0 0 1 7.68438,112.23703 81.071426,79.64286 0 0 1 -114.23062,7.8306 81.071426,79.64286 0 0 1 -8.25757,-112.19779 81.071426,79.64286 0 0 1 114.18918,-8.39353"
         sodipodi:open="true"
         sodipodi:end="5.4218479"
         sodipodi:start="5.4318835"
         sodipodi:ry="79.64286"
         sodipodi:rx="81.071426"
         sodipodi:cy="959.50507"
         sodipodi:cx="469.28571"
         sodipodi:type="arc"
         id="path4717-6-7"
         style="color:#000000;display:inline;overflow:visible;visibility:visible;fill:#ff001d;fill-opacity:1;fill-rule:evenodd;stroke:none;stroke-width:1px;stroke-linecap:butt;stroke-linejoin:miter;stroke-miterlimit:4;stroke-dasharray:none;stroke-dashoffset:0;stroke-opacity:1;marker:none;enable-background:accumulate" />
      <path
         d="m 448.84647,934.03493 a 10.714286,11.071428 0 0 1 1.01556,15.60246 10.714286,11.071428 0 0 1 -15.09656,1.08855 10.714286,11.071428 0 0 1 -1.09131,-15.597 10.714286,11.071428 0 0 1 15.09108,-1.16681"
         sodipodi:open="true"
         sodipodi:end="5.4218479"
         sodipodi:start="5.4318835"
         sodipodi:ry="11.071428"
         sodipodi:rx="10.714286"
         sodipodi:cy="942.36218"
         sodipodi:cx="441.78571"
         sodipodi:type="arc"
         id="path4719-5-4"
         style="color:#000000;display:inline;overflow:visible;visibility:visible;fill:#ffffff;fill-opacity:1;fill-rule:evenodd;stroke:none;stroke-width:1px;stroke-linecap:butt;stroke-linejoin:miter;stroke-miterlimit:4;stroke-dasharray:none;stroke-dashoffset:0;stroke-opacity:1;marker:none;enable-background:accumulate" />
      <path
         d="m 510.27506,934.39211 a 10.714286,11.071428 0 0 1 1.01556,15.60246 10.714286,11.071428 0 0 1 -15.09656,1.08855 10.714286,11.071428 0 0 1 -1.09131,-15.597 10.714286,11.071428 0 0 1 15.09108,-1.16681"
         sodipodi:open="true"
         sodipodi:end="5.4218479"
         sodipodi:start="5.4318835"
         sodipodi:ry="11.071428"
         sodipodi:rx="10.714286"
         sodipodi:cy="942.71936"
         sodipodi:cx="503.21429"
         sodipodi:type="arc"
         id="path4719-3-6-5"
         style="color:#000000;display:inline;overflow:visible;visibility:visible;fill:#ffffff;fill-opacity:1;fill-rule:evenodd;stroke:none;stroke-width:1px;stroke-linecap:butt;stroke-linejoin:miter;stroke-miterlimit:4;stroke-dasharray:none;stroke-dashoffset:0;stroke-opacity:1;marker:none;enable-background:accumulate" />
      <path
         sodipodi:nodetypes="cc"
         inkscape:connector-curvature="0"
         id="path4736-9-2"
         d="m 436.78574,1002.7194 c 22.69667,-24.30364 43.25438,-21.87029 62.14285,1.4285"
         style="fill:none;fill-rule:evenodd;stroke:#ffffff;stroke-width:7;stroke-linecap:round;stroke-linejoin:miter;stroke-miterlimit:4;stroke-dasharray:none;stroke-opacity:1" />
      <path
         sodipodi:nodetypes="ssscs"
         inkscape:connector-curvature="0"
         id="path4738-5"
         d="m 432.51983,973.86467 c -0.96806,2.89705 -2.65225,3.20364 -3.76515,0.68542 -1.11291,-2.51823 -1.27817,-6.88148 -0.27218,-9.8209 3.67962,-10.7515 2.75873,-7.69704 3.93467,-1.5204 0.95743,3.86938 1.07072,7.75883 0.10266,10.65588 z"
         style="color:#000000;display:inline;overflow:visible;visibility:visible;fill:#ffffff;fill-opacity:1;fill-rule:evenodd;stroke:none;stroke-width:0.54400003;stroke-linecap:butt;stroke-linejoin:miter;stroke-miterlimit:4;stroke-dasharray:none;stroke-dashoffset:0;stroke-opacity:1;marker:none;enable-background:accumulate" />
      <path
         sodipodi:nodetypes="ssscs"
         inkscape:connector-curvature="0"
         id="path4738-5-4"
         d="m 511.55579,974.2953 c 0.96806,2.89705 2.65225,3.20364 3.76515,0.68542 1.11291,-2.51823 1.27817,-6.88148 0.27218,-9.8209 -3.67962,-10.7515 -2.75873,-7.69704 -3.93467,-1.5204 -0.95743,3.86938 -1.07072,7.75883 -0.10266,10.65588 z"
         style="color:#000000;display:inline;overflow:visible;visibility:visible;fill:#ffffff;fill-opacity:1;fill-rule:evenodd;stroke:none;stroke-width:0.54400003;stroke-linecap:butt;stroke-linejoin:miter;stroke-miterlimit:4;stroke-dasharray:none;stroke-dashoffset:0;stroke-opacity:1;marker:none;enable-background:accumulate" />
    </g>
  </g>
</svg>
