<?xml version="1.0" encoding="UTF-8" standalone="no"?>
<!-- Created with Inkscape (http://www.inkscape.org/) -->

<svg
   xmlns:dc="http://purl.org/dc/elements/1.1/"
   xmlns:cc="http://creativecommons.org/ns#"
   xmlns:rdf="http://www.w3.org/1999/02/22-rdf-syntax-ns#"
   xmlns:svg="http://www.w3.org/2000/svg"
   xmlns="http://www.w3.org/2000/svg"
   xmlns:sodipodi="http://sodipodi.sourceforge.net/DTD/sodipodi-0.dtd"
   xmlns:inkscape="http://www.inkscape.org/namespaces/inkscape"
   width="46.040443mm"
   height="45.236168mm"
   viewBox="0 0 163.13543 160.28563"
   id="svg7521"
   version="1.1"
   inkscape:version="0.91 r13725"
   sodipodi:docname="pain0.svg">
  <defs
     id="defs7523" />
  <sodipodi:namedview
     id="base"
     pagecolor="#ffffff"
     bordercolor="#666666"
     borderopacity="1.0"
     inkscape:pageopacity="0.0"
     inkscape:pageshadow="2"
     inkscape:zoom="1.4"
     inkscape:cx="19.578585"
     inkscape:cy="141.57139"
     inkscape:document-units="px"
     inkscape:current-layer="layer1"
     showgrid="false"
     fit-margin-top="0"
     fit-margin-left="0"
     fit-margin-right="0"
     fit-margin-bottom="0"
     inkscape:window-width="1920"
     inkscape:window-height="1026"
     inkscape:window-x="0"
     inkscape:window-y="27"
     inkscape:window-maximized="1" />
  <metadata
     id="metadata7526">
    <rdf:RDF>
      <cc:Work
         rdf:about="">
        <dc:format>image/svg+xml</dc:format>
        <dc:type
           rdf:resource="http://purl.org/dc/dcmitype/StillImage" />
        <dc:title></dc:title>
      </cc:Work>
    </rdf:RDF>
  </metadata>
  <g
     inkscape:label="Layer 1"
     inkscape:groupmode="layer"
     id="layer1"
     transform="translate(-338.43229,-513.64796)">
    <g
       transform="translate(324.28581,-12.857086)"
       id="g7431">
      <path
         d="M 149.14073,546.74545 A 81.071426,79.64286 0 0 1 156.82511,658.9825 81.071426,79.64286 0 0 1 42.594488,666.81305 81.071426,79.64286 0 0 1 34.336916,554.61529 81.071426,79.64286 0 0 1 148.52611,546.22176"
         sodipodi:open="true"
         sodipodi:end="5.4218479"
         sodipodi:start="5.4318835"
         sodipodi:ry="79.64286"
         sodipodi:rx="81.071426"
         sodipodi:cy="606.64795"
         sodipodi:cx="95.714287"
         sodipodi:type="arc"
         id="path4717-06"
         style="color:#000000;display:inline;overflow:visible;visibility:visible;fill:#00ff00;fill-opacity:1;fill-rule:evenodd;stroke:#000000;stroke-width:1px;stroke-linecap:butt;stroke-linejoin:miter;stroke-miterlimit:4;stroke-dasharray:none;stroke-dashoffset:0;stroke-opacity:1;marker:none;enable-background:accumulate" />
      <path
         d="m 75.27505,581.17781 a 10.714286,11.071428 0 0 1 1.015558,15.60246 10.714286,11.071428 0 0 1 -15.096559,1.08855 10.714286,11.071428 0 0 1 -1.091309,-15.59699 10.714286,11.071428 0 0 1 15.091083,-1.16682"
         sodipodi:open="true"
         sodipodi:end="5.4218479"
         sodipodi:start="5.4318835"
         sodipodi:ry="11.071428"
         sodipodi:rx="10.714286"
         sodipodi:cy="589.50507"
         sodipodi:cx="68.214287"
         sodipodi:type="arc"
         id="path4719-89"
         style="color:#000000;display:inline;overflow:visible;visibility:visible;fill:#000000;fill-opacity:1;fill-rule:evenodd;stroke:#000000;stroke-width:1px;stroke-linecap:butt;stroke-linejoin:miter;stroke-miterlimit:4;stroke-dasharray:none;stroke-dashoffset:0;stroke-opacity:1;marker:none;enable-background:accumulate" />
      <path
         d="m 136.70365,581.53499 a 10.714286,11.071428 0 0 1 1.01555,15.60246 10.714286,11.071428 0 0 1 -15.09655,1.08855 10.714286,11.071428 0 0 1 -1.09131,-15.597 10.714286,11.071428 0 0 1 15.09108,-1.16681"
         sodipodi:open="true"
         sodipodi:end="5.4218479"
         sodipodi:start="5.4318835"
         sodipodi:ry="11.071428"
         sodipodi:rx="10.714286"
         sodipodi:cy="589.86224"
         sodipodi:cx="129.64288"
         sodipodi:type="arc"
         id="path4719-3-2"
         style="color:#000000;display:inline;overflow:visible;visibility:visible;fill:#000000;fill-opacity:1;fill-rule:evenodd;stroke:#000000;stroke-width:1px;stroke-linecap:butt;stroke-linejoin:miter;stroke-miterlimit:4;stroke-dasharray:none;stroke-dashoffset:0;stroke-opacity:1;marker:none;enable-background:accumulate" />
      <path
         sodipodi:nodetypes="cc"
         inkscape:connector-curvature="0"
         id="path4838-6"
         d="m 62.120022,632.24762 c 18.99855,28.36242 54.608688,31.37518 76.266518,-2.0203"
         style="fill:none;fill-rule:evenodd;stroke:#000000;stroke-width:7.00000095;stroke-linecap:round;stroke-linejoin:miter;stroke-miterlimit:4;stroke-dasharray:none;stroke-opacity:1" />
      <path
         sodipodi:nodetypes="cc"
         inkscape:connector-curvature="0"
         id="path6374"
         d="m 52.857143,568.79078 c 9.835299,-9.45216 19.200877,-13.26766 27.142858,0"
         style="fill:none;fill-rule:evenodd;stroke:#000000;stroke-width:5;stroke-linecap:round;stroke-linejoin:miter;stroke-miterlimit:4;stroke-dasharray:none;stroke-opacity:1" />
      <path
         sodipodi:nodetypes="cc"
         inkscape:connector-curvature="0"
         id="path6374-6"
         d="m 145.20637,569.14055 c -9.8353,-9.45216 -19.20088,-13.26766 -27.14286,0"
         style="fill:none;fill-rule:evenodd;stroke:#000000;stroke-width:5;stroke-linecap:round;stroke-linejoin:miter;stroke-miterlimit:4;stroke-dasharray:none;stroke-opacity:1" />
    </g>
  </g>
</svg>
