<?xml version="1.0" encoding="UTF-8" standalone="no"?>
<!-- Created with Inkscape (http://www.inkscape.org/) -->

<svg
   xmlns:dc="http://purl.org/dc/elements/1.1/"
   xmlns:cc="http://creativecommons.org/ns#"
   xmlns:rdf="http://www.w3.org/1999/02/22-rdf-syntax-ns#"
   xmlns:svg="http://www.w3.org/2000/svg"
   xmlns="http://www.w3.org/2000/svg"
   xmlns:sodipodi="http://sodipodi.sourceforge.net/DTD/sodipodi-0.dtd"
   xmlns:inkscape="http://www.inkscape.org/namespaces/inkscape"
   width="46.040443mm"
   height="45.236168mm"
   viewBox="0 0 163.13543 160.28563"
   id="svg7521"
   version="1.1"
   inkscape:version="0.91 r13725"
   sodipodi:docname="pain9.svg">
  <defs
     id="defs7523" />
  <sodipodi:namedview
     id="base"
     pagecolor="#ffffff"
     bordercolor="#666666"
     borderopacity="1.0"
     inkscape:pageopacity="0.0"
     inkscape:pageshadow="2"
     inkscape:zoom="1.4"
     inkscape:cx="86.545179"
     inkscape:cy="143.57105"
     inkscape:document-units="px"
     inkscape:current-layer="layer1"
     showgrid="false"
     fit-margin-top="0"
     fit-margin-left="0"
     fit-margin-right="0"
     fit-margin-bottom="0"
     inkscape:window-width="1920"
     inkscape:window-height="1026"
     inkscape:window-x="0"
     inkscape:window-y="27"
     inkscape:window-maximized="1" />
  <metadata
     id="metadata7526">
    <rdf:RDF>
      <cc:Work
         rdf:about="">
        <dc:format>image/svg+xml</dc:format>
        <dc:type
           rdf:resource="http://purl.org/dc/dcmitype/StillImage" />
        <dc:title></dc:title>
      </cc:Work>
    </rdf:RDF>
  </metadata>
  <g
     inkscape:label="Layer 1"
     inkscape:groupmode="layer"
     id="layer1"
     transform="translate(-271.46569,-515.64757)">
    <g
       transform="translate(93.747799,-332.28601)"
       id="g7487">
      <path
         d="m 312.71215,868.17398 a 81.071426,79.64286 0 0 1 7.68438,112.23705 81.071426,79.64286 0 0 1 -114.23062,7.83055 81.071426,79.64286 0 0 1 -8.25757,-112.19776 81.071426,79.64286 0 0 1 114.18918,-8.39353"
         sodipodi:open="true"
         sodipodi:end="5.4218479"
         sodipodi:start="5.4318835"
         sodipodi:ry="79.64286"
         sodipodi:rx="81.071426"
         sodipodi:cy="928.07648"
         sodipodi:cx="259.28571"
         sodipodi:type="arc"
         id="path4717-6"
         style="color:#000000;display:inline;overflow:visible;visibility:visible;fill:#ff0000;fill-opacity:1;fill-rule:evenodd;stroke:#000000;stroke-width:1px;stroke-linecap:butt;stroke-linejoin:miter;stroke-miterlimit:4;stroke-dasharray:none;stroke-dashoffset:0;stroke-opacity:1;marker:none;enable-background:accumulate" />
      <path
         d="m 238.84645,902.60634 a 10.714286,11.071428 0 0 1 1.01556,15.60246 10.714286,11.071428 0 0 1 -15.09656,1.08855 10.714286,11.071428 0 0 1 -1.09131,-15.597 10.714286,11.071428 0 0 1 15.09109,-1.16681"
         sodipodi:open="true"
         sodipodi:end="5.4218479"
         sodipodi:start="5.4318835"
         sodipodi:ry="11.071428"
         sodipodi:rx="10.714286"
         sodipodi:cy="910.93359"
         sodipodi:cx="231.78569"
         sodipodi:type="arc"
         id="path4719-5"
         style="color:#000000;display:inline;overflow:visible;visibility:visible;fill:#000000;fill-opacity:1;fill-rule:evenodd;stroke:#000000;stroke-width:1px;stroke-linecap:butt;stroke-linejoin:miter;stroke-miterlimit:4;stroke-dasharray:none;stroke-dashoffset:0;stroke-opacity:1;marker:none;enable-background:accumulate" />
      <path
         d="m 300.27506,902.96352 a 10.714286,11.071428 0 0 1 1.01556,15.60246 10.714286,11.071428 0 0 1 -15.09656,1.08855 10.714286,11.071428 0 0 1 -1.09131,-15.597 10.714286,11.071428 0 0 1 15.09108,-1.16681"
         sodipodi:open="true"
         sodipodi:end="5.4218479"
         sodipodi:start="5.4318835"
         sodipodi:ry="11.071428"
         sodipodi:rx="10.714286"
         sodipodi:cy="911.29077"
         sodipodi:cx="293.21429"
         sodipodi:type="arc"
         id="path4719-3-6"
         style="color:#000000;display:inline;overflow:visible;visibility:visible;fill:#000000;fill-opacity:1;fill-rule:evenodd;stroke:#000000;stroke-width:1px;stroke-linecap:butt;stroke-linejoin:miter;stroke-miterlimit:4;stroke-dasharray:none;stroke-dashoffset:0;stroke-opacity:1;marker:none;enable-background:accumulate" />
      <path
         sodipodi:nodetypes="cc"
         inkscape:connector-curvature="0"
         id="path4736-9"
         d="m 226.78572,971.29073 c 22.69667,-24.30355 43.25438,-21.8702 62.14285,1.4286"
         style="fill:none;fill-rule:evenodd;stroke:#000000;stroke-width:7;stroke-linecap:round;stroke-linejoin:miter;stroke-miterlimit:4;stroke-dasharray:none;stroke-opacity:1" />
      <path
         sodipodi:nodetypes="ssscs"
         inkscape:connector-curvature="0"
         id="path4738"
         d="m 222.51981,942.43609 c -0.96806,2.89705 -2.65225,3.20364 -3.76515,0.68542 -1.11291,-2.51823 -1.27817,-6.88148 -0.27218,-9.8209 3.67962,-10.7515 2.75873,-7.69704 3.93467,-1.5204 0.95743,3.86938 1.07072,7.75883 0.10266,10.65588 z"
         style="color:#000000;display:inline;overflow:visible;visibility:visible;fill:#000000;fill-opacity:1;fill-rule:evenodd;stroke:#000000;stroke-width:0.54400003;stroke-linecap:butt;stroke-linejoin:miter;stroke-miterlimit:4;stroke-dasharray:none;stroke-dashoffset:0;stroke-opacity:1;marker:none;enable-background:accumulate" />
    </g>
  </g>
</svg>
